{
  "Torah and guidance": {
    "en": "Torah and guidance",
    "he": "תורה והדרכה",
    "professions": {
      "Tutorial key": {
        "en": "Tutorial key",
        "he": "מפתח הדרכה"
      },
      "Instructions": {
        "en": "Instructions",
        "he": "מדריך"
      },
      "Teacher soldier": {
        "en": "Teacher soldier",
        "he": "מורה חיילת"
      },
      "Training NCO": {
        "en": "Training NCO",
        "he": "מש\"ק הדרכה"
      }
    },
    "unit": {}
  },
  "Deals": {
    "en": "Deals",
    "he": "מבצעים",
    "professions": {
      "Brigade Operations Officer": {
        "en": "Brigade Operations Officer",
        "he": "קצין מבצעים חטיבתי"
      },
      "Battalion Operations Officer": {
        "en": "Battalion Operations Officer",
        "he": "קצין מבצעים גדודי"
      },
      "Unit Operations Officer": {
        "en": "Unit Operations Officer",
        "he": "קצין מבצעים יחידתי"
      },
      "Operations Sargent": {
        "en": "Operations Sargent",
        "he": "סמל מבצעים"
      },
      "NCO Operations Branch": {
        "en": "NCO Operations Branch",
        "he": "מש\"ק ענף מבצעים"
      }
    },
    "unit": {}
  },
  "Intelligence": {
    "en": "Intelligence",
    "he": "מודיעין",
    "professions": {
      "Analyst": {
        "en": "Analyst",
        "he": "אנליסט"
      },
      "Intelligence man": {
        "en": "Intelligence man",
        "he": "איש מודיעין"
      },
      "Coordinator of a special intelligence team": {
        "en": "Coordinator of a special intelligence team",
        "he": "רכז צוות מודיעין מיוחד"
      },
      "Intelligence researcher": {
        "en": "Intelligence researcher",
        "he": "חוקר מודיעין"
      },
      "Information security officer": {
        "en": "Information security officer",
        "he": "איש ביטחון מידע"
      },
      "Translating": {
        "en": "Translating",
        "he": "תרגומן"
      },
      "Intelligence fighter": {
        "en": "Intelligence fighter",
        "he": "לוחם מודיעין"
      },
      "Observation / observation": {
        "en": "Observation / observation",
        "he": "תצפיתן/תצפיתנית"
      },
      "aerial image analyst": {
        "en": "aerial image analyst",
        "he": "מפענח תצלומי אוויר"
      },
      "Sambitz": {
        "en": "Sambitz",
        "he": "סמבצ/ית"
      },
      "Radar operator": {
        "en": "Radar operator",
        "he": "מפעיל מכ\"ם"
      },
      "In the KACSIT - in a land-based collection center": {
        "en": "In the KACSIT - in a land-based collection center",
        "he": "בקא\"סית - בקרית איסוף יבשתית"
      },
      "NCO / Intelligence intelligence navigation and investigation": {
        "en": "NCO / Intelligence intelligence navigation and investigation",
        "he": "מש\"ק/ית מודיעין ניווט ותחקור"
      },
      "Photogrammetr": {
        "en": "Photogrammetr",
        "he": "פוטוגרמטר/ית"
      },
      "Operator of airborne electronic intelligence systems": {
        "en": "Operator of airborne electronic intelligence systems",
        "he": "מפעיל/ת מערכות מודיעין אלקטרוני מוטס"
      },
      "Operator of hover systems": {
        "en": "Operator of hover systems",
        "he": "מפעיל/ת מערכות רחף"
      },
      "Advanced photographer and ID": {
        "en": "Advanced photographer and ID",
        "he": "צלם ומזהה מתקדם"
      },
      "Builds field positions": {
        "en": "Builds field positions",
        "he": "בונה עמדות שטח"
      },
      "Cipher / deciphering": {
        "en": "Cipher / deciphering",
        "he": "איש צופן /פיענוח"
      },
      "intelligence officer": {
        "en": "intelligence officer",
        "he": "קצין מודיעין"
      },
      "Intelligence NCO": {
        "en": "Intelligence NCO",
        "he": "מש\"ק מודיעין"
      },
      "Language Researcher (Arabic)": {
        "en": "Language Researcher (Arabic)",
        "he": "חוקר שפה (ערבית)"
      },
      "Designer and developer of intelligence systems": {
        "en": "Designer and developer of intelligence systems",
        "he": "מעצב ומפתח מערכות מודיעין"
      },
      "Talented track \"gamma\"": {
        "en": "Talented track \"gamma\"",
        "he": "מוכשר מסלול \"גאמא\""
      },
      "Competent project \"Skyscrapers\"": {
        "en": "Competent project \"Skyscrapers\"",
        "he": "מוכשר פרוייקט \"שחקים\""
      },
      "Competent Track \"Webinet\"": {
        "en": "Competent Track \"Webinet\"",
        "he": "מוכשר מסלול \"וובינט\""
      },
      "Qualified technological intelligence track": {
        "en": "Qualified technological intelligence track",
        "he": "מוכשר מסלול מודיעין טכנולוגי"
      },
      "He is a talented intelligence officer": {
        "en": "He is a talented intelligence officer",
        "he": "מוכשר קורס את\"ם- חוקר מודיעין"
      },
      "Qualified Masterpiece Track - decoding and processing information": {
        "en": "Qualified Masterpiece Track - decoding and processing information",
        "he": "מוכשר מסלול מופת - פענוח ועיבוד מידע"
      },
      "Competent satellite route": {
        "en": "Competent satellite route",
        "he": "מוכשר מסלול הלוויינות"
      },
      "Competent listening track, translating and processing foreign languages": {
        "en": "Competent listening track, translating and processing foreign languages",
        "he": "מוכשר מסלול האזנה,תרגום ועיבוד שפות לועזיות"
      },
      "Graduated from the Arabic Language course": {
        "en": "Graduated from the Arabic Language course",
        "he": "בוגר קורס השפה הערבית"
      },
      "Graduated from the Persian language course": {
        "en": "Graduated from the Persian language course",
        "he": "בוגר קורס השפה הפרסית"
      },
      "He is a graduate of Ofek": {
        "en": "He is a graduate of Ofek",
        "he": "בוגר אופק - לימוד ערבית"
      },
      "Talented technological Marom program": {
        "en": "Talented technological Marom program",
        "he": "מוכשר תוכנית מרום טכנולוגי"
      },
      "Research worker - Meteor": {
        "en": "Research worker - Meteor",
        "he": "עובד מחקר - מטאור"
      },
      "Competent electronic route intelligence": {
        "en": "Competent electronic route intelligence",
        "he": "מוכשר מסלול מודיעין אלקטרוני"
      },
      "Competent Matam Track - Technological Systems": {
        "en": "Competent Matam Track - Technological Systems",
        "he": "מוכשר מסלול מט\"ם - מערכות טכנולוגיות"
      },
      "Qualified Track Matan - Research and Development Sources": {
        "en": "Qualified Track Matan - Research and Development Sources",
        "he": "מוכשר מסלול מת\"ן - מחקר ופיתוח מקורות"
      },
      "Qualified Track Gvanim - Chemistry Graduates": {
        "en": "Qualified Track Gvanim - Chemistry Graduates",
        "he": "מוכשר מסלול גוונים - בוגרי כימיה"
      },
      "Talented track - international communication": {
        "en": "Talented track - international communication",
        "he": "מוכשר מסלול תב\"ל - תקשורת בין לאומית"
      },
      "Talented track green wisdom": {
        "en": "Talented track green wisdom",
        "he": "מוכשר מסלול בינה ירוקה"
      },
      "MAMASH - Analysis and concentration of information": {
        "en": "MAMASH - Analysis and concentration of information",
        "he": "ממ\"ש -  ניתוח וריכוז מידע"
      },
      "listener": {
        "en": "listener",
        "he": "מאזין"
      },
      "Decrypts and processes information": {
        "en": "Decrypts and processes information",
        "he": "מפענח ומעבד מידע"
      }
    },
    "unit": {}
  },
  "Human Resources / Human Resources": {
    "en": "Human Resources / Human Resources",
    "he": "כוח אדם/משאבי אנוש",
    "professions": {
      "Commander of the manpower organization branch": {
        "en": "Commander of the manpower organization branch",
        "he": "מפקד ענף ארגון כוח אדם"
      },
      "Deputy Commander of the Personnel Organization Branch": {
        "en": "Deputy Commander of the Personnel Organization Branch",
        "he": "סגן מפקד ענף ארגון כוח אדם"
      },
      "Human Resources Coordinator": {
        "en": "Human Resources Coordinator",
        "he": "רכז משאבי אנוש"
      },
      "Human Resources Officer": {
        "en": "Human Resources Officer",
        "he": "קצין משאבי אנוש"
      },
      "Human Resources NCO": {
        "en": "Human Resources NCO",
        "he": "מש\"ק/ית משאבי אנוש"
      },
      "Payments clerk": {
        "en": "Payments clerk",
        "he": "פקיד תשלומים"
      },
      "Personnel Officer": {
        "en": "Personnel Officer",
        "he": "קצינת כח אדם"
      },
      "Organizational consultant": {
        "en": "Organizational consultant",
        "he": "קצינן/ת ייעוץ ארגוני"
      }
    },
    "unit": {}
  },
  "Policing and enforcement": {
    "en": "Policing and enforcement",
    "he": "שיטור ואכיפה",
    "professions": {
      "Military policeman": {
        "en": "Military policeman",
        "he": "שוטר צבאי"
      },
      "researcher": {
        "en": "researcher",
        "he": "חוקר"
      },
      "Appreciate": {
        "en": "Appreciate",
        "he": "מעריך"
      },
      "diagnostic": {
        "en": "diagnostic",
        "he": "מאבחן"
      }
    },
    "unit": {}
  },
  "Law and order": {
    "en": "Law and order",
    "he": "חוק ומשפט",
    "professions": {
      "judge": {
        "en": "judge",
        "he": "שופט"
      },
      "Chief Secretary": {
        "en": "Chief Secretary",
        "he": "מזכיר ראשי"
      },
      "clerk": {
        "en": "clerk",
        "he": "פקידה"
      },
      "shorthand": {
        "en": "shorthand",
        "he": "קצרנות"
      },
      "Military equipment": {
        "en": "Military equipment",
        "he": "פקרקליט צבאי"
      },
      "Military prosecutor": {
        "en": "Military prosecutor",
        "he": "תובע צבאי"
      },
      "Military Advocate": {
        "en": "Military Advocate",
        "he": "סנגור צבאי"
      },
      "Legal Counsel": {
        "en": "Legal Counsel",
        "he": "יועץ משפטי"
      },
      "The father of the court - a unit commander": {
        "en": "The father of the court - a unit commander",
        "he": "אב בית המשפט- מפקד יחידה"
      },
      "Claim cell": {
        "en": "Claim cell",
        "he": "חוליית תביעה"
      },
      "Detention Desk": {
        "en": "Detention Desk",
        "he": "דסק למעצרים"
      },
      "Judge - youth officer": {
        "en": "Judge - youth officer",
        "he": "שופט - קצין נוער"
      },
      "President of the District Court": {
        "en": "President of the District Court",
        "he": "נשיא בית דין מחוזי"
      },
      "President of the Special Court": {
        "en": "President of the Special Court",
        "he": "נשיא בית הדין המיוחד"
      },
      "President of the Court of Appeals - Unit Commander": {
        "en": "President of the Court of Appeals - Unit Commander",
        "he": "נשיא בי הדין לערעורים - מפקד יחידה"
      },
      "Judge of the Military Court of Appeals": {
        "en": "Judge of the Military Court of Appeals",
        "he": "שופט בית הדין הצבאי לעירעורים"
      },
      "An army officer serving in a rabbinic court": {
        "en": "An army officer serving in a rabbinic court",
        "he": "קצין צבא מכהן בבית דין"
      },
      "An army officer serving in the Military Court of Appeals": {
        "en": "An army officer serving in the Military Court of Appeals",
        "he": "קצין צבא מכהן בבית דין הצבאי לעירעורים"
      },
      "Commander of the Northern Parliaments": {
        "en": "Commander of the Northern Parliaments",
        "he": "מפקד פרקילטות צפון"
      },
      "Northern and Navy Advocate": {
        "en": "Northern and Navy Advocate",
        "he": "פרקליט צפון וחיל הים"
      },
      "Commander of the Southern District Attorney's Office": {
        "en": "Commander of the Southern District Attorney's Office",
        "he": "מפקד פרקליטות דרום"
      },
      "Southern Advocate and Land Arm Headquarters": {
        "en": "Southern Advocate and Land Arm Headquarters",
        "he": "פרקליט דרום ומפקדת זרוע יבשה"
      },
      "Commander of the Central Prosecution": {
        "en": "Commander of the Central Prosecution",
        "he": "מפקד פרקליטות מרכז"
      },
      "The Central Advocate and the Air Force, the General Staff and the Home Front": {
        "en": "The Central Advocate and the Air Force, the General Staff and the Home Front",
        "he": "פרקליט מרכז וחיל האווי, מטכ\"ל ועורף"
      },
      "Commander of the Office of the Advocate for Special Assignments": {
        "en": "Commander of the Office of the Advocate for Special Assignments",
        "he": "מפקד פרקליטות לתפקידים מיוחדים"
      },
      "Attorney at the Special Prosecution Office": {
        "en": "Attorney at the Special Prosecution Office",
        "he": "פרקליט בפרקליטות לתפקידים מיוחדים"
      },
      "Advocate for Operational Positions": {
        "en": "Advocate for Operational Positions",
        "he": "פרקליט לתפקידים מבצעיים"
      },
      "Commander of the Defendant and Absentee Attorneys' Office": {
        "en": "Commander of the Defendant and Absentee Attorneys' Office",
        "he": "מפקד פרקליטות עריקים ונפקדים"
      },
      "From a lawyer for deserters and absentees": {
        "en": "From a lawyer for deserters and absentees",
        "he": "מפרקליט עריקים ונפקדים"
      },
      "Commander of the Traffic Prosecution": {
        "en": "Commander of the Traffic Prosecution",
        "he": "מפקד פרקליטות תעבורה"
      },
      "Traffic attorney": {
        "en": "Traffic attorney",
        "he": "פרקליט תעבורה"
      },
      "Chief Military Prosecutor": {
        "en": "Chief Military Prosecutor",
        "he": "התובע הצבאי הראשי"
      },
      "Deputy Chief Military Prosecutor": {
        "en": "Deputy Chief Military Prosecutor",
        "he": "סגן התובע הצבאי הראשי"
      },
      "Officer - Lawyer": {
        "en": "Officer - Lawyer",
        "he": "קצין - פרקליט"
      },
      "The chief military advocate": {
        "en": "The chief military advocate",
        "he": "הסנגור הצבאי הראשי"
      },
      "Deputy Chief Military Advocate": {
        "en": "Deputy Chief Military Advocate",
        "he": "סגן הסנגור הצבאי הראשי"
      },
      "Commander of the Southern Military Advocacy and Land Command": {
        "en": "Commander of the Southern Military Advocacy and Land Command",
        "he": "מפקד סנגוריה צבאית דרום ומפקדת יבשה"
      },
      "Southern Advocate and Land Command": {
        "en": "Southern Advocate and Land Command",
        "he": "סנגור דרום ומפקדת יבשה"
      },
      "Commander of the Northern Military Advocacy and the Navy": {
        "en": "Commander of the Northern Military Advocacy and the Navy",
        "he": "מפקד סנגוריה צבאית צפון וחיל הים"
      },
      "Northern Defense and Navy": {
        "en": "Northern Defense and Navy",
        "he": "סנגור צפון וחיל הים"
      },
      "Commander of regional military snobbery": {
        "en": "Commander of regional military snobbery",
        "he": "מפקד סנוגוריה צבאית מחוזית"
      },
      "District Military Advocacy": {
        "en": "District Military Advocacy",
        "he": "סנגוריה צבאית מחוזית"
      },
      "Officer - Advocate - Advocate": {
        "en": "Officer - Advocate - Advocate",
        "he": "קצין - פרקליט - סנגור"
      },
      "Legal Counsel Personnel and handling of the individual": {
        "en": "Legal Counsel Personnel and handling of the individual",
        "he": "יועץ משפטי תחום כח אדם והטיפול בפרט"
      },
      "Legal Counsel Field of legislation, communications and resources": {
        "en": "Legal Counsel Field of legislation, communications and resources",
        "he": "יועץ משפטי תחום חקיקה, תקשורת ומשאבים"
      },
      "Legal Advisor to the Armed Forces": {
        "en": "Legal Advisor to the Armed Forces",
        "he": "יועץ משפטי זרועות הצבא"
      },
      "Legal Advisor to the Intelligence Corps": {
        "en": "Legal Advisor to the Intelligence Corps",
        "he": "יועץ משפטי לחיל המודיעין"
      },
      "Counselor for Medical Corps trials": {
        "en": "Counselor for Medical Corps trials",
        "he": "יועץ למשפטי חיל הרפואה"
      },
      "Legal advisor to the field of construction, infrastructure and permanent residence": {
        "en": "Legal advisor to the field of construction, infrastructure and permanent residence",
        "he": "יועץ משפטי לתחום הבינוי, תשתיות ומגורי אנשי קבע"
      },
      "Legal Counsel for the Pledge": {
        "en": "Legal Counsel for the Pledge",
        "he": "יועץ משפטי בטיחוני"
      },
      "An operative legal advisor": {
        "en": "An operative legal advisor",
        "he": "יועץ משפטי אופרטיבי"
      },
      "Legal Advisor to the Northern Command": {
        "en": "Legal Advisor to the Northern Command",
        "he": "יועץ משפטי לפיקוד צפון"
      },
      "Legal Advisor to the Southern Command": {
        "en": "Legal Advisor to the Southern Command",
        "he": "יועץ משפטי לפיקוד דרום"
      },
      "Legal Advisor to the Operational Crisis Advisory Group": {
        "en": "Legal Advisor to the Operational Crisis Advisory Group",
        "he": "יועץ משפטי למערך הייעוץ האופרטיבי בחירום"
      },
      "Economic and Humanitarian Legal Advisor": {
        "en": "Economic and Humanitarian Legal Advisor",
        "he": "יועץ משפטי כלכלי הומניטרי"
      },
      "Legal Advisor for Strategic Affairs": {
        "en": "Legal Advisor for Strategic Affairs",
        "he": "יועץ משפטי לעניינים אסטרטגים"
      },
      "Legal Advisor on Boundary Law": {
        "en": "Legal Advisor on Boundary Law",
        "he": "יועץ משפטי בתחום דיני גבולות"
      },
      "Legal Advisor for External Relations": {
        "en": "Legal Advisor for External Relations",
        "he": "יועץ משפטי לקשרי חוץ"
      },
      "Legal Advisor in the Civil and Economic Section": {
        "en": "Legal Advisor in the Civil and Economic Section",
        "he": "יועץ משפטי במדור אזרחי וכלכלי"
      },
      "Legal Counsel in the Criminal Security Section": {
        "en": "Legal Counsel in the Criminal Security Section",
        "he": "יועץ משפטי במדור בטחון פלילי"
      },
      "Legal Advisor in the Real Estate Section": {
        "en": "Legal Advisor in the Real Estate Section",
        "he": "יועץ משפטי במדור מקרקעין"
      },
      "Legal Advisor in the Population Registry Section": {
        "en": "Legal Advisor in the Population Registry Section",
        "he": "יועץ משפטי במדור מרשם אוכלוסין"
      },
      "Internal Legal Advisor": {
        "en": "Internal Legal Advisor",
        "he": "יועץ משפטי במדור פנים"
      }
    },
    "unit": {}
  },
  "Education and youth": {
    "en": "Education and youth",
    "he": "חינוך ונוער",
    "professions": {
      "Education and youth economy": {
        "en": "Education and youth economy",
        "he": "משק/ית חינוך ונוער"
      },
      "Education and Youth Coordinator": {
        "en": "Education and Youth Coordinator",
        "he": "רכזת חינוך ונוער"
      },
      "Education and Youth Guide": {
        "en": "Education and Youth Guide",
        "he": "מדריך חינוך ונוער"
      },
      "Teacher soldier": {
        "en": "Teacher soldier",
        "he": "מורה חיילת"
      }
    },
    "unit": {}
  },
  "Transported": {
    "en": "Transported",
    "he": "נהגלים/תובלה",
    "professions": {
      "Driver": {
        "en": "Driver",
        "he": "נהג"
      },
      "Driver Dipper": {
        "en": "Driver Dipper",
        "he": "נהג דיפנדר"
      },
      "Rio driver": {
        "en": "Rio driver",
        "he": "נהג ריו"
      },
      "The driver of Oshkosh": {
        "en": "The driver of Oshkosh",
        "he": "נהג אושקוש"
      },
      "Storm driver": {
        "en": "Storm driver",
        "he": "נהג סופה"
      },
      "Hummer driver": {
        "en": "Hummer driver",
        "he": "נהג האמר"
      },
      "An APC driver": {
        "en": "An APC driver",
        "he": "נהג נגמ\"ש"
      },
      "A tank driver": {
        "en": "A tank driver",
        "he": "נהג טנק"
      },
      "He was a commandant": {
        "en": "He was a commandant",
        "he": "נהג חפ\"ק"
      },
      "Boss driver": {
        "en": "Boss driver",
        "he": "נהג בוס"
      },
      "He was a warrior": {
        "en": "He was a warrior",
        "he": "נהג לוחם"
      }
    },
    "unit": {}
  },
  "Logistics": {
    "en": "Logistics",
    "he": "לוגיסטיקה",
    "professions": {
      "maintenance man": {
        "en": "maintenance man",
        "he": "איש תחזוקה"
      },
      "Coordinator of means of communication": {
        "en": "Coordinator of means of communication",
        "he": "רכז אמצעי תקשרות"
      },
      "A dedicated equipment coordinator": {
        "en": "A dedicated equipment coordinator",
        "he": "רכז ציוד ייעודי"
      },
      "PUMP SUPPLY CENTER": {
        "en": "PUMP SUPPLY CENTER",
        "he": "רכז הספקה מוצנחת"
      },
      "Logistics NCO": {
        "en": "Logistics NCO",
        "he": "מש\"ק/ית לוגיסטיקה"
      },
      "Brigade Logistics Officer": {
        "en": "Brigade Logistics Officer",
        "he": "קצין לוגיסטיקה חטיבתי"
      },
      "Logistics Officer Battalions": {
        "en": "Logistics Officer Battalions",
        "he": "קצין לוגיסטיקה גדודי"
      },
      "Logistics Officer": {
        "en": "Logistics Officer",
        "he": "קצין לוגיסטיקה"
      },
      "quartermaster": {
        "en": "quartermaster",
        "he": "אפסנאי"
      },
      "Folds parachutes": {
        "en": "Folds parachutes",
        "he": "מקפל/ת מצנחים"
      },
      "Logistics clerk": {
        "en": "Logistics clerk",
        "he": "פקידת לוגיסטיקה"
      },
      "Responsible for inventory management": {
        "en": "Responsible for inventory management",
        "he": "אחראי/ת ניהול מלאי"
      },
      "Cook": {
        "en": "Cook",
        "he": "טבח/ית"
      },
      "Logistics systems are strengthened": {
        "en": "Logistics systems are strengthened",
        "he": "מתחזק מערכות לוגיסטיות"
      },
      "NCO - Technological Technologies": {
        "en": "NCO - Technological Technologies",
        "he": "מש\"ק אמל\"ח טכנולוגיות"
      },
      "Warehouse Technician (Technical Officer)": {
        "en": "Warehouse Technician (Technical Officer)",
        "he": "מחסנאי פקיד טכני (מפ\"ט)"
      }
    },
    "unit": {}
  },
  "Medicine": {
    "en": "Medicine",
    "he": "רפואה",
    "professions": {
      "Medical Officer": {
        "en": "Medical Officer",
        "he": "קצין רפואה"
      },
      "doctor": {
        "en": "doctor",
        "he": "רופא"
      },
      "Medic": {
        "en": "Medic",
        "he": "חובש"
      },
      "A paramedic": {
        "en": "A paramedic",
        "he": "פראמדיק"
      },
      "Laboratory worker": {
        "en": "Laboratory worker",
        "he": "עובד מעבדה"
      },
      "chemist": {
        "en": "chemist",
        "he": "כימאי"
      },
      "Assistant": {
        "en": "Assistant",
        "he": "סייעת"
      },
      "Nurse": {
        "en": "Nurse",
        "he": "אח/ות"
      },
      "Veterinarian": {
        "en": "Veterinarian",
        "he": "וטרינר/ית"
      },
      "Medical school commanders": {
        "en": "Medical school commanders",
        "he": "מפקדי בית ספר לרפואה"
      },
      "Officers of a medical organization in the brigades": {
        "en": "Officers of a medical organization in the brigades",
        "he": "קציני ארגון רפואה בחטיבות"
      },
      "Officers of a medical organization in divisions": {
        "en": "Officers of a medical organization in divisions",
        "he": "קציני ארגון רפואה באוגדות"
      },
      "Officers of a medical organization in command": {
        "en": "Officers of a medical organization in command",
        "he": "קציני ארגון רפואה בפיקוד"
      },
      "Medical organization officers at the main headquarters": {
        "en": "Medical organization officers at the main headquarters",
        "he": "קציני ארגון רפואה במפקדות ראשיות"
      },
      "Medical organization officers in special units": {
        "en": "Medical organization officers in special units",
        "he": "קציני ארגון רפואה ביחידות מיוחדות"
      },
      "Medical organization officers at the headquarters of the Chief Medical Officer": {
        "en": "Medical organization officers at the headquarters of the Chief Medical Officer",
        "he": "קציני ארגון רפואה במפקדת קצין רפואה ראשי"
      },
      "Medical Officer - Training Officer": {
        "en": "Medical Officer - Training Officer",
        "he": "קצין ארגון רפואה - קצין הדרכה"
      },
      "Medical Officer - Air Force Officer": {
        "en": "Medical Officer - Air Force Officer",
        "he": "קצין ארגון רפואה - קצין חמ\"ל"
      },
      "Commander of the paramedics course": {
        "en": "Commander of the paramedics course",
        "he": "מפקד קורס חובשים"
      },
      "Instructor in paramedics course": {
        "en": "Instructor in paramedics course",
        "he": "מדריך בקורס חובשים"
      },
      "Commander of the Dental Assistants Course": {
        "en": "Commander of the Dental Assistants Course",
        "he": "מפקד קורס סייעות שיניים"
      },
      "Dental Assistants": {
        "en": "Dental Assistants",
        "he": "מדריך קורס סייעות שיניים"
      },
      "The commander of the paramedics course is a medical secretary": {
        "en": "The commander of the paramedics course is a medical secretary",
        "he": "מפקד קורס חובשי רמו\"ן מזכירות רפואית"
      },
      "Medical paramedics course": {
        "en": "Medical paramedics course",
        "he": "קורס חובשי רמו\"ן מזכירות רפואית"
      },
      "The commander of the public sector course in public health": {
        "en": "The commander of the public sector course in public health",
        "he": "מפקד קורס משקי ברה\"צ - מפקח בריאות הציבור"
      },
      "Commander of a course in the Bar": {
        "en": "Commander of a course in the Bar",
        "he": "מפקד קורס  ברה\"צ"
      },
      "Commander of Mental Health Course": {
        "en": "Commander of Mental Health Course",
        "he": "מפקד קורס לבריאות הנפש"
      },
      "Guide to Mental Health Course": {
        "en": "Guide to Mental Health Course",
        "he": "מדריך בקורס בריאות הנפש"
      },
      "Commander of the Army Health Course": {
        "en": "Commander of the Army Health Course",
        "he": "מפקד קורס בריאות הצבא"
      },
      "Guide to Army Health Course": {
        "en": "Guide to Army Health Course",
        "he": "מדריך קורס בריאות הצבא"
      },
      "Training of departmental and divisional paramedics": {
        "en": "Training of departmental and divisional paramedics",
        "he": "אימוני חובשים מחלקתיים ופלוגתיים"
      },
      "Commander of the Trouma Division": {
        "en": "Commander of the Trouma Division",
        "he": "מפקד מדור טרואמה"
      },
      "Medical Unit Trainer": {
        "en": "Medical Unit Trainer",
        "he": "מאמן יחידות רפואה"
      },
      "Training Manual for the Medical Staff Commanders of the Medical Corps": {
        "en": "Training Manual for the Medical Staff Commanders of the Medical Corps",
        "he": "מדריך הכשרת הסגל הרפואי פיקודי של חיל הרפואה"
      },
      "Commander of the Medical Staff Training Command of the Medical Corps": {
        "en": "Commander of the Medical Staff Training Command of the Medical Corps",
        "he": "מפקד הכשרת הסגל הרפואי פיקודי שך חיל הרפואה"
      },
      "Military psychologist": {
        "en": "Military psychologist",
        "he": "פסיכולוג צבאי"
      },
      "Military doctor": {
        "en": "Military doctor",
        "he": "רופא צבאי"
      },
      "Hofal": {
        "en": "Hofal",
        "he": "חופ\"ל"
      },
      "A sports doctor": {
        "en": "A sports doctor",
        "he": "רופא ספורט"
      },
      "Chapters": {
        "en": "Chapters",
        "he": "חוג\"דים"
      },
      "Head of clinic": {
        "en": "Head of clinic",
        "he": "אחראי מרפאה"
      },
      "Commander of the course of completing a soldier's course in \"Medicine\"": {
        "en": "Commander of the course of completing a soldier's course in \"Medicine\"",
        "he": "מפקד קורס השלמה חיילית ב\"רפואה\""
      },
      "Course Instructor Course in Medicine": {
        "en": "Course Instructor Course in Medicine",
        "he": "מדריך קורס השלמה חיילית ב\"רפואה\""
      },
      "Commander of the": {
        "en": "Commander of the",
        "he": "מפקד קורס השלמה חיילית ב\"קא\"רים\""
      },
      "Course Guide": {
        "en": "Course Guide",
        "he": "מדריך קורס השלמה חיילית ב\"קא\"רים\""
      },
      "Commander of the Paralympic Completion course": {
        "en": "Commander of the Paralympic Completion course",
        "he": "מפקד קורס השלמה חיילית לקציני מטה פארא רפואיים"
      },
      "Instructor of the Paralympic Staff Course": {
        "en": "Instructor of the Paralympic Staff Course",
        "he": "מדריך קורס השלמה חיילית לקציני  מטה פארא רפואיים"
      },
      "Commander of Preventive Medicine course": {
        "en": "Commander of Preventive Medicine course",
        "he": "מפקד קורס חובשי רפואה מונעת"
      },
      "A Guide to Preventive Medicine Practitioners": {
        "en": "A Guide to Preventive Medicine Practitioners",
        "he": "מדריך חובשי רפואה מונעת"
      },
      "Commander of the Departmental Staff Course": {
        "en": "Commander of the Departmental Staff Course",
        "he": "מפקד קורס חובשיים מחלקתיים"
      },
      "Course Part": {
        "en": "Course Part",
        "he": "מדריך קורס חובשים מחלקתיים - חובשים שלב 5"
      },
      "Commander of the General Practitioners Course": {
        "en": "Commander of the General Practitioners Course",
        "he": "מפקד קורס חובשיים כלליים"
      },
      "General Practitioners - Paramedics Step 6": {
        "en": "General Practitioners - Paramedics Step 6",
        "he": "מדריך קורס חובשים כלליים - חובשים שלב 6"
      },
      "Commander of a course for paramedics": {
        "en": "Commander of a course for paramedics",
        "he": "מפקד קורס חובשים פלוגתיים"
      },
      "CLASSIC MEDICINE - COUPLES - MEDICINE": {
        "en": "CLASSIC MEDICINE - COUPLES - MEDICINE",
        "he": "מדריך קורס חובשים פלוגתיים - חופ\"לים - חובשים שלב 7"
      },
      "The course commander is responsible for clinics": {
        "en": "The course commander is responsible for clinics",
        "he": "מפקד קורס אחראי מרפאות"
      },
      "Course Instructor Clinics - Medics Step 8": {
        "en": "Course Instructor Clinics - Medics Step 8",
        "he": "מדריך קורס אחראי מרפאות - חובשים שלב 8"
      },
      "Commander of the Battalion Medals course": {
        "en": "Commander of the Battalion Medals course",
        "he": "מפקד קורס חובשים גדודיים"
      },
      "COURSE COURSES": {
        "en": "COURSE COURSES",
        "he": "מדריך קורס חובשים גדודיים - חוג\"דים - חובשים שלב 9"
      },
      "Commander of paramedics course": {
        "en": "Commander of paramedics course",
        "he": "מדריך קורס חובשים גדודיים - חוג\"דים - חובשים שלב 9"
      },
      "Paramedics Course Guide": {
        "en": "Paramedics Course Guide",
        "he": "מפקד קורס פארמדיקים"
      },
      "Commander of the ambulance driver training course": {
        "en": "Commander of the ambulance driver training course",
        "he": "מפקד קורס השתלמות נהגי אמבולנס"
      },
      "A course guide for ambulance drivers": {
        "en": "A course guide for ambulance drivers",
        "he": "מדריך קורס השתלמות לנהגי אמבולנס"
      },
      "First Aid Guide": {
        "en": "First Aid Guide",
        "he": "מדריך עזרה ראשונה"
      }
    },
    "unit": {}
  },
  "Technology": {
    "en": "Technology",
    "he": "טכנולוגיה",
    "professions": {
      "soldier Technical array": {
        "en": "soldier Technical array",
        "he": "חייל/חיילת מערך טכני"
      },
      "Developers rescue equipment": {
        "en": "Developers rescue equipment",
        "he": "מפתחי ציוד חילוץ"
      },
      "Production NCO": {
        "en": "Production NCO",
        "he": "מש\"ק ייצור"
      },
      "Professional Training NCO": {
        "en": "Professional Training NCO",
        "he": "מש\"ק הדרכה מקצועית"
      },
      "NCO - Technologies Development": {
        "en": "NCO - Technologies Development",
        "he": "מש\"ק אמל\"ח טכנולוגיות - פיתוח אמצעים"
      },
      "IT Technician": {
        "en": "IT Technician",
        "he": "טכנאי  IT"
      },
      "A cyber man": {
        "en": "A cyber man",
        "he": "איש סייבר"
      },
      "programmer": {
        "en": "programmer",
        "he": "מתכנת"
      },
      "Systems Analyst": {
        "en": "Systems Analyst",
        "he": "מנתח מערכות"
      },
      "Electronic fighter": {
        "en": "Electronic fighter",
        "he": "לוחם אלקטרוני"
      },
      "Cyber shield": {
        "en": "Cyber shield",
        "he": "מגן סייבר"
      },
      "Broadband Communications Technician": {
        "en": "Broadband Communications Technician",
        "he": "טכנאי תקשורת רחבת סרט (תטר\"ס)"
      },
      "Electronic Equipment Checker": {
        "en": "Electronic Equipment Checker",
        "he": "בודק ציוד אלקטרוני (בצ\"ק)"
      }
    },
    "unit": {}
  },
  "Maintenance": {
    "en": "Maintenance",
    "he": "תחזוקה",
    "professions": {
      "Qualified Electricity": {
        "en": "Qualified Electricity",
        "he": "מוסמך חשמל"
      },
      "Certified Electronics": {
        "en": "Certified Electronics",
        "he": "מוסמך אלקטרוניקה"
      },
      "Certified Control": {
        "en": "Certified Control",
        "he": "מוסמך בקרה"
      },
      "Reinforce rescue equipment": {
        "en": "Reinforce rescue equipment",
        "he": "מתחזקי ציוד חילוץ"
      },
      "Rum climbers - maintenance of masts": {
        "en": "Rum climbers - maintenance of masts",
        "he": "מטפסי רום - אחזקת תרנים שוטפת"
      },
      "maintenance man": {
        "en": "maintenance man",
        "he": "איש תחזוקה"
      },
      "Technician - Chief Technician": {
        "en": "Technician - Chief Technician",
        "he": "טכנ\"ר - טכנאי ראשי"
      }
    },
    "unit": {}
  },
  "Communication and Communication": {
    "en": "Communication and Communication",
    "he": "קשר ותקשוב",
    "professions": {
      "Electronic fighter": {
        "en": "Electronic fighter",
        "he": "      לוחם אלקטרוני"
      },
      "contact": {
        "en": "contact",
        "he": "איש קשר"
      },
      "Technician / checker / operator": {
        "en": "Technician / checker / operator",
        "he": "טכנאי/בודק/מפעיל"
      },
      "A computer man": {
        "en": "A computer man",
        "he": "איש תקשוב"
      },
      "Technician / operational liaison": {
        "en": "Technician / operational liaison",
        "he": "טכנאי/ת קשר מבצעית"
      },
      "Non-commissioned officer": {
        "en": "Non-commissioned officer",
        "he": "מש\"ק/ית קשר"
      },
      "Maintains IT systems": {
        "en": "Maintains IT systems",
        "he": "מתחזק מערכות תקשוב"
      },
      "A battalion communications officer": {
        "en": "A battalion communications officer",
        "he": "קצין תקשוב גדודי"
      },
      "Coordinator of ICT": {
        "en": "Coordinator of ICT",
        "he": "רכז/ת אמצעי תקשוב"
      },
      "Communication Systems Technician": {
        "en": "Communication Systems Technician",
        "he": "טכנאי מערכות תקשורת"
      },
      "Systems Analyst": {
        "en": "Systems Analyst",
        "he": "מנתח מערכות"
      },
      "Director of Computer Networks": {
        "en": "Director of Computer Networks",
        "he": "מנהל/לת רשתות מחשוב"
      },
      "Controller / wireless": {
        "en": "Controller / wireless",
        "he": "בקר/אלחוטן"
      },
      "Operational Communications Operator (MATAM)": {
        "en": "Operational Communications Operator (MATAM)",
        "he": "מפעיל תקשוב מבצעי (מת\"ם)"
      },
      "Special operational communications operator Radio (Tamari)": {
        "en": "Special operational communications operator Radio (Tamari)",
        "he": "מפעיל תקשורת מבצעית ייעודית רדיו (תמי\"ר)"
      },
      "Designated operational operator Radio communications (MTRR)": {
        "en": "Designated operational operator Radio communications (MTRR)",
        "he": "מפעיל מבצעית ייעודית תקשורת רדיו (מית\"ר)"
      },
      "Management and Registration NCOs (Manuar)": {
        "en": "Management and Registration NCOs (Manuar)",
        "he": "מש\"קיות ניהול ורישום (מנו\"ר)"
      },
      "Qualified Course Technician Advanced Data Systems": {
        "en": "Qualified Course Technician Advanced Data Systems",
        "he": "מוכשר קורס טכנאי מערכות נתונים מתקדמות"
      },
      "Qualified course technician systems for computerization professions": {
        "en": "Qualified course technician systems for computerization professions",
        "he": "מוכשר קורס טכנאי מערכות למקצועות התקשוב"
      },
      "Qualified course in technical coding and decoding": {
        "en": "Qualified course in technical coding and decoding",
        "he": "מוכשר קורס צופן פיענוח טכנולגי"
      },
      "Topaz Shield - Secret Letter": {
        "en": "Topaz Shield - Secret Letter",
        "he": "מגן טופז - כתב סתרים"
      },
      "Enables data communication - encrypted networks and data": {
        "en": "Enables data communication - encrypted networks and data",
        "he": "מפעיל קשורת נתונים - רשתות ונתונים מוצפנים"
      },
      "Operates a radio frequency code and a technological coding code": {
        "en": "Operates a radio frequency code and a technological coding code",
        "he": "מפעיל/ה צופן פעינוח רדיו וצופן פעינוח טכנולוגי"
      },
      "Combat Tactical Officer": {
        "en": "Combat Tactical Officer",
        "he": "קצין תקשוב קרבי"
      },
      "P. Link": {
        "en": "P. Link",
        "he": "ע. קשר\"ח"
      },
      "Communications Equipment Officer": {
        "en": "Communications Equipment Officer",
        "he": "קצין ציוד קשר (קצ\"ק)"
      },
      "Link": {
        "en": "Link",
        "he": "קשר\"ח"
      },
      "Operational Technician": {
        "en": "Operational Technician",
        "he": "טכנאי תקשוב מבצעי"
      },
      "Enables code and security": {
        "en": "Enables code and security",
        "he": "מפעיל צופן וביטחון"
      },
      "Broadband Communications Technician": {
        "en": "Broadband Communications Technician",
        "he": "טכנאי תקשורת רחבת סרט(טתר\"ס)"
      },
      "Electronic equipment checker": {
        "en": "Electronic equipment checker",
        "he": "בודק ציוד אלקטרוני"
      },
      "Checking communication equipment (in Tzukit)": {
        "en": "Checking communication equipment (in Tzukit)",
        "he": "בודקת ציוד קשר (בצ\"קית)"
      },
      "Kwoni Field": {
        "en": "Kwoni Field",
        "he": "קווני שדה"
      },
      "Telegraphic Digitization Code": {
        "en": "Telegraphic Digitization Code",
        "he": "צופן פענוח טלגרפי (צפ\"ט)"
      },
      "Radio decoding code": {
        "en": "Radio decoding code",
        "he": "צופן פענוח רדיו (צפ\"ר)"
      },
      "Radio operators": {
        "en": "Radio operators",
        "he": "מפעילי רדיו"
      },
      "Digital Fleet Operators": {
        "en": "Digital Fleet Operators",
        "he": "מפעילי צי\"ד - צבא יבשה דיגיטאלי"
      },
      "Main call technician": {
        "en": "Main call technician",
        "he": "טכנאי קשר ראשי"
      }
    },
    "unit": {}
  },
  "Adjutancy": {
    "en": "Adjutancy",
    "he": "שלישות",
    "professions": {
      "Coordinator of attribution": {
        "en": "Coordinator of attribution",
        "he": "רכז שלישות"
      },
      "Officer of Trinity": {
        "en": "Officer of Trinity",
        "he": "קצין שלישות"
      },
      "Education Officer": {
        "en": "Education Officer",
        "he": "קצין חינוך"
      },
      "NCO Link": {
        "en": "NCO Link",
        "he": "מש\"ק קישור"
      },
      "NCO triplets": {
        "en": "NCO triplets",
        "he": "מש\"ק שלישיות"
      },
      "Information NCO": {
        "en": "Information NCO",
        "he": "מש\"ק מידע"
      },
      "Non-commissioned officer": {
        "en": "Non-commissioned officer",
        "he": "מש\"ק ת\"ש"
      },
      "Education NCO": {
        "en": "Education NCO",
        "he": "מש\"ק חינוך"
      },
      "Payments clerk": {
        "en": "Payments clerk",
        "he": "פקיד תשלומים"
      },
      "Chief attache officer": {
        "en": "Chief attache officer",
        "he": "קצין שלישות ראשי"
      },
      "Staff officer": {
        "en": "Staff officer",
        "he": "קצין מטה"
      },
      "Personnel Planning Officer": {
        "en": "Personnel Planning Officer",
        "he": "קצין תכנון כח אדם"
      },
      "Public relations officer": {
        "en": "Public relations officer",
        "he": "קצין יחסי ציבור"
      },
      "Personnel Officer": {
        "en": "Personnel Officer",
        "he": "קצין כוח אדם"
      },
      "Control officer": {
        "en": "Control officer",
        "he": "קצין שליטה"
      },
      "Recruitment and Recruitment Officer - Officer": {
        "en": "Recruitment and Recruitment Officer - Officer",
        "he": "רע\"ן איתור וגיוס - קצין"
      }
    },
    "unit": {}
  },
  "Armament": {
    "en": "Armament",
    "he": "חימוש",
    "professions": {
      "Responsible for inventory management": {
        "en": "Responsible for inventory management",
        "he": "אחראית ניהול מלאי"
      },
      "Ordnance officer": {
        "en": "Ordnance officer",
        "he": "קצין חימוש"
      },
      "Car testers - officer / against department": {
        "en": "Car testers - officer / against department",
        "he": "בוחני רכב - /קצין/נגד מחלקה"
      },
      "Electrical technician": {
        "en": "Electrical technician",
        "he": "טכנאי/ת חשמל"
      },
      "She is holding arms": {
        "en": "She is holding arms",
        "he": "מאחזק/ת נשק"
      },
      "Weapon": {
        "en": "Weapon",
        "he": "נשק"
      },
      "Ammunition tester": {
        "en": "Ammunition tester",
        "he": "בוחן/ת תחמושת"
      },
      "Ammunition holder": {
        "en": "Ammunition holder",
        "he": "מאחזק/ת תחמושת"
      },
      "Optician": {
        "en": "Optician",
        "he": "אופטיקאית"
      },
      "An electrician": {
        "en": "An electrician",
        "he": "חשמלאי רק\"ם"
      },
      "A mechanic in the RAF": {
        "en": "A mechanic in the RAF",
        "he": "מכונאי רק\"ם"
      },
      "Car mechanic": {
        "en": "Car mechanic",
        "he": "מכונאי רכב"
      },
      "Technical clerk": {
        "en": "Technical clerk",
        "he": "פקידה טכנית"
      },
      "Car maintenance systems": {
        "en": "Car maintenance systems",
        "he": "מתחזק מערכות רכב"
      },
      "electrician": {
        "en": "electrician",
        "he": "חשמלאי"
      },
      "Maintains systems": {
        "en": "Maintains systems",
        "he": "מתחזק מערכות"
      },
      "Ammunition facilities": {
        "en": "Ammunition facilities",
        "he": "מתקני תחמושת"
      },
      "1164 - Weapon technician and turret gun": {
        "en": "1164 - Weapon technician and turret gun",
        "he": "1164 – טכנאי נשק וצריח תומ\"ת (תותח מתנייע)"
      },
      "1162 - Propulsion Systems Technician": {
        "en": "1162 - Propulsion Systems Technician",
        "he": "1162 – טכנאי מערכות הנעה תומ\"ת (תותח מתנייע)"
      },
      "Propulsion system technician": {
        "en": "Propulsion system technician",
        "he": "טכנאי מערכות הנעה"
      },
      "Electrical System Technician": {
        "en": "Electrical System Technician",
        "he": "טכנאי מערכות חשמל"
      },
      "A gun technician and a turret": {
        "en": "A gun technician and a turret",
        "he": "טכנאי נשק וצריח"
      },
      "Control and observation technicians": {
        "en": "Control and observation technicians",
        "he": "טכנאי בקרה ותצפית"
      },
      "MOTION ENGINEER": {
        "en": "MOTION ENGINEER",
        "he": "טכנאי מערכות הנעה מרכבה סימן 2-3"
      },
      "Fire systems technicians": {
        "en": "Fire systems technicians",
        "he": "טכנאי מערכות אש"
      },
      "Technician falcon systems": {
        "en": "Technician falcon systems",
        "he": "טכנאי מערכות בז"
      },
      "Electronics Systems Technician": {
        "en": "Electronics Systems Technician",
        "he": "טכנאי מערכות  אלקטרוניקה"
      },
      "Systems Technician": {
        "en": "Systems Technician",
        "he": "טכנאי מערכות"
      },
      "Dedicated technician smashes": {
        "en": "Dedicated technician smashes",
        "he": "טכנאי ייעודי מנתץ"
      },
      "Systems technician and rider propulsion": {
        "en": "Systems technician and rider propulsion",
        "he": "טכנאי מערכות הנעה רוכב"
      },
      "Electrical system technician rides / gallops": {
        "en": "Electrical system technician rides / gallops",
        "he": "טכנאי מערכות חשמל רוכב/דוהר"
      },
      "A weapons technician and a rider": {
        "en": "A weapons technician and a rider",
        "he": "טכנאי נשק וצריך רוכב"
      },
      "Systems technician and propulsion generators": {
        "en": "Systems technician and propulsion generators",
        "he": "טכנאי מערכות הנעה גנרטורים"
      },
      "A dedicated propulsion technician": {
        "en": "A dedicated propulsion technician",
        "he": "טכנאי הנעה ציוד ייעודי"
      },
      "General locksmith": {
        "en": "General locksmith",
        "he": "מסגר כללי"
      },
      "Technicians and hydraulics": {
        "en": "Technicians and hydraulics",
        "he": "טכנאי צהר\"מ  והידראוליקה"
      },
      "Optical Technician": {
        "en": "Optical Technician",
        "he": "טכנאי אופטי"
      },
      "Advanced Armament Systems Technician": {
        "en": "Advanced Armament Systems Technician",
        "he": "טכנאי מערכות חימוש מתקדמות"
      },
      "Arch systems technician": {
        "en": "Arch systems technician",
        "he": "טכנאי מערכות קשת"
      },
      "TECHNICAL TECHNIQUES OF DAY CAMERAS": {
        "en": "TECHNICAL TECHNIQUES OF DAY CAMERAS",
        "he": "טכנאי מכללי מצלמות יום"
      },
      "Thermal Systems Technician": {
        "en": "Thermal Systems Technician",
        "he": "טכנאי מערכות תרמיות"
      },
      "Display Technician": {
        "en": "Display Technician",
        "he": "טכנאי תצוגה"
      },
      "Raven and age systems technicians": {
        "en": "Raven and age systems technicians",
        "he": "טכנאי מערכות עורב וגיל"
      },
      "Field intelligence technicians": {
        "en": "Field intelligence technicians",
        "he": "טכנאי מערכות מודיעין שדה"
      },
      "Mid-range and long-range observation systems technicians": {
        "en": "Mid-range and long-range observation systems technicians",
        "he": "טכנאי מערכות לתצפית בטווחים בינוניים וארוכים"
      },
      "System Technician - Spider, Masts, Square Masts and Alarm System, Software.": {
        "en": "System Technician - Spider, Masts, Square Masts and Alarm System, Software.",
        "he": "טכנאי מערכות - ספיידר, תרנים, מאמים בריבוע ומערך התרעה, תוכנת מאו\"ת."
      },
      "Alert Systems Technician": {
        "en": "Alert Systems Technician",
        "he": "טכנאי מערכות התראה"
      }
    },
    "unit": {}
  },
  "Administration": {
    "en": "Administration",
    "he": "מנהלה",
    "professions": {
      "Physical Fitness Instructor": {
        "en": "Physical Fitness Instructor",
        "he": "מדריכת אימון גופני"
      },
      "A gym manager": {
        "en": "A gym manager",
        "he": "מנהל/ת חדר כושר"
      },
      "Office clerk": {
        "en": "Office clerk",
        "he": "פקידת לשכה"
      },
      "Department manager": {
        "en": "Department manager",
        "he": "מנהלת לשכה"
      },
      "Disciplinary NCO": {
        "en": "Disciplinary NCO",
        "he": "מש\"ק/ית משמעת"
      },
      "Administrative employee": {
        "en": "Administrative employee",
        "he": "עובד/ת מנהלה"
      },
      "Chief of Staff Discipline": {
        "en": "Chief of Staff Discipline",
        "he": "רס\"ר משמעת"
      },
      "Staff sergeant": {
        "en": "Staff sergeant",
        "he": "עובדי רס\"ר"
      },
      "Company Commander": {
        "en": "Company Commander",
        "he": "מ\"פ מפקדה"
      },
      "Deputy commander and commander": {
        "en": "Deputy commander and commander",
        "he": "סגן מ\"פ מפקדה"
      },
      "Head office": {
        "en": "Head office",
        "he": "ראש לשכה"
      },
      "Parachuting Instructor": {
        "en": "Parachuting Instructor",
        "he": "מדריך/ת צניחה"
      },
      "Head of the Bureau - RALACH": {
        "en": "Head of the Bureau - RALACH",
        "he": "ראש לשכה - ראל\"ש"
      },
      "fireman": {
        "en": "fireman",
        "he": "כבאי"
      },
      "Gym operator (dogs)": {
        "en": "Gym operator (dogs)",
        "he": "מפעיל/ת חדר כושר (כלבים)"
      },
      "Gym operator (people)": {
        "en": "Gym operator (people)",
        "he": "מפעיל חדר כושר (אנשים)"
      },
      "Photogrammetr": {
        "en": "Photogrammetr",
        "he": "פוטוגרמטר/ית"
      },
      "photographer": {
        "en": "photographer",
        "he": "צלם"
      },
      "NCO Photography and multimedia editor": {
        "en": "NCO Photography and multimedia editor",
        "he": "מש\"ק צילום ועורך מולטימדיה"
      }
    },
    "unit": {}
  },
  "Warfare": {
    "en": "Warfare",
    "he": "לוחמה",
    "professions": {
      "Shaldag fighter": {
        "en": "Shaldag fighter",
        "he": "לוחם שלדג"
      },
      "Unit commander": {
        "en": "Unit commander",
        "he": "מפקד יחידה"
      },
      "Deputy commander of the unit": {
        "en": "Deputy commander of the unit",
        "he": "סגן מפקד יחידה"
      },
      "Team Commander": {
        "en": "Team Commander",
        "he": "מפקד צוות"
      },
      "Deputy Staff Commander": {
        "en": "Deputy Staff Commander",
        "he": "סגן מפקד צוות"
      },
      "fighter": {
        "en": "fighter",
        "he": "לוחם"
      },
      "A dog": {
        "en": "A dog",
        "he": "כלבן"
      },
      "Company commander": {
        "en": "Company commander",
        "he": "מ\"פ"
      },
      "Deputy company commander": {
        "en": "Deputy company commander",
        "he": "סמ\"פ"
      },
      "Combat medic": {
        "en": "Combat medic",
        "he": "חובש קרבי"
      },
      "A combat soldier": {
        "en": "A combat soldier",
        "he": "לוחם לוט\"ר"
      },
      "sniper": {
        "en": "sniper",
        "he": "צלף"
      },
      "Rescue fighters": {
        "en": "Rescue fighters",
        "he": "לוחמי חילוץ"
      },
      "Fighter - Front-wheel forwarder": {
        "en": "Fighter - Front-wheel forwarder",
        "he": "לוחם - מנחית סער קדמי"
      },
      "Operational driver": {
        "en": "Operational driver",
        "he": "נהג מבצעי"
      },
      "economy": {
        "en": "economy",
        "he": "מש\"ק"
      },
      "Fighter - Diver - certified civil diving": {
        "en": "Fighter - Diver - certified civil diving",
        "he": "לוחם - צוללן - מוסמך צלילה אזרחית"
      },
      "Commander - Battery Commander (Company Commander)": {
        "en": "Commander - Battery Commander (Company Commander)",
        "he": "מסו\"ל - מפקד סוללה - (מ\"פ)"
      },
      "S. Lieutenant Colonel - Deputy Battery Commander": {
        "en": "S. Lieutenant Colonel - Deputy Battery Commander",
        "he": "ס. מסו\"ל - סגן מפקד סוללה (ס. מ\"פ)"
      },
      "Operations Sargent": {
        "en": "Operations Sargent",
        "he": "סמל מבצעים"
      },
      "Fighter - diver": {
        "en": "Fighter - diver",
        "he": "לוחם - צוללן"
      },
      "Competent underwater sabotage": {
        "en": "Competent underwater sabotage",
        "he": "מוכשר חבלה תת ימית"
      },
      "Competent bomb disposal": {
        "en": "Competent bomb disposal",
        "he": "מוכשר סילוק פצצות"
      },
      "A noncom": {
        "en": "A noncom",
        "he": "מש\"ק אמל\"ח"
      }
    },
    "unit": {}
  },
  "Air": {
    "en": "Air",
    "he": "אוויר",
    "professions": {
      "Pilot - Flying Flower": {
        "en": "Pilot - Flying Flower",
        "he": "טייס – פרח טיס"
      },
      "Pilot": {
        "en": "Pilot",
        "he": "טייס"
      },
      "Fighter pilot": {
        "en": "Fighter pilot",
        "he": "טייס קרב"
      },
      "Helicopter pilot": {
        "en": "Helicopter pilot",
        "he": "טייס מסוקים"
      },
      "A transport pilot": {
        "en": "A transport pilot",
        "he": "טייס תובלה"
      },
      "Navigate": {
        "en": "Navigate",
        "he": "נווט"
      },
      "Airborne Technician - Aircraft Transport": {
        "en": "Airborne Technician - Aircraft Transport",
        "he": "טכנאי מוטס - מטוסים תובלה"
      },
      "Airborne Technician - Helicopters Transport": {
        "en": "Airborne Technician - Helicopters Transport",
        "he": "טכנאי מוטס - מסוקים תובלה"
      },
      "Airborne Technician - Aircraft - Battle": {
        "en": "Airborne Technician - Aircraft - Battle",
        "he": "טכנאי מוטס - מטוסים - קרב"
      },
      "Airborne Technician - Helicopters - Battle": {
        "en": "Airborne Technician - Helicopters - Battle",
        "he": "טכנאי מוטס - מסוקים - קרב"
      },
      "Commander of the Air Force": {
        "en": "Commander of the Air Force",
        "he": "מפקד חיל אוויר"
      },
      "Deputy Commander of the Air Force": {
        "en": "Deputy Commander of the Air Force",
        "he": "סגן מפקד חיל אוויר"
      },
      "Shaldag fighter": {
        "en": "Shaldag fighter",
        "he": "לוחם שלדג"
      },
      "Airborne medic": {
        "en": "Airborne medic",
        "he": "חובש מוטס"
      },
      "An anti-aircraft fighter": {
        "en": "An anti-aircraft fighter",
        "he": "לוחם/ת נ\"מ"
      },
      "Ground control officer": {
        "en": "Ground control officer",
        "he": "קצין שליטה קרקעית"
      },
      "Rescue Fighter": {
        "en": "Rescue Fighter",
        "he": "לוחם חילוץ"
      },
      "Gas stations are maintained": {
        "en": "Gas stations are maintained",
        "he": "מתחזק תחנות דלק"
      },
      "Designed Rhino Roam": {
        "en": "Designed Rhino Roam",
        "he": "מוכנן/ת קרנף רו ראם"
      },
      "Air Intelligence Researcher": {
        "en": "Air Intelligence Researcher",
        "he": "חוקר מודיעין אוויר"
      },
      "Operator of airborne electronic intelligence systems": {
        "en": "Operator of airborne electronic intelligence systems",
        "he": "מפעיל /ת מערכות מודיעין אלקטרוני מוטס"
      },
      "Operations and supervision officer": {
        "en": "Operations and supervision officer",
        "he": "איש מבצעים ופיקוח"
      },
      "Systems operator": {
        "en": "Systems operator",
        "he": "מפעיל מערכות"
      },
      "Air Image Decoder (aerial photo decoder)": {
        "en": "Air Image Decoder (aerial photo decoder)",
        "he": "מפענח/ת תצלומי אוויר (תצ\"א) "
      },
      "Samba (anti-aircraft war room)": {
        "en": "Samba (anti-aircraft war room)",
        "he": "סמבצ\"ית חמ\"ל נ\"מ (סמלת מבצעים-חדר מלחמה-נגד מטוסים)"
      },
      "NCO / Intelligence Navigation and Investigation (MTR)": {
        "en": "NCO / Intelligence Navigation and Investigation (MTR)",
        "he": "מש\"ק/ית מודיעין ניווט ותחקור (מנ\"ת)"
      },
      "Photogrammetr": {
        "en": "Photogrammetr",
        "he": "פוטוגרמטר/ית"
      },
      "Radar operator": {
        "en": "Radar operator",
        "he": "מפעיל מכ\"ם "
      },
      "Aerial observer": {
        "en": "Aerial observer",
        "he": "תצפיתן/ית אוויר"
      },
      "Operator of hover systems": {
        "en": "Operator of hover systems",
        "he": "מפעיל/ת מערכות רחף"
      },
      "Warning Coordinator": {
        "en": "Warning Coordinator",
        "he": "רכז/ת התרעה"
      },
      "Electronic warfare operator": {
        "en": "Electronic warfare operator",
        "he": "מפעיל/ת לוחמה אלקטרונית (ל\"א)"
      },
      "NCO / Airborne Fire Extinguishing Officer": {
        "en": "NCO / Airborne Fire Extinguishing Officer",
        "he": "מש\"ק/ית כיבוי אש תעופתי"
      },
      "Operator of Tactical Communications and Computer Systems": {
        "en": "Operator of Tactical Communications and Computer Systems",
        "he": "מפעיל/ת מערכות קש\"ב (קשר ומחשוב) טקטי"
      },
      "Operates ground protection assembly": {
        "en": "Operates ground protection assembly",
        "he": "מפעיל/ת מכלול הגנה קרקעית"
      },
      "NCO control": {
        "en": "NCO control",
        "he": "מש\"קית שליטה"
      },
      "Preventing bird damage": {
        "en": "Preventing bird damage",
        "he": "מונעת מפגעי ציפורים"
      },
      "Air-traffic controller": {
        "en": "Air-traffic controller",
        "he": "פקח/ית טיסה"
      },
      "Air-raid room worker (command-line)": {
        "en": "Air-raid room worker (command-line)",
        "he": "עובד/ת חדר מבצעים-אוויר (פקמ\"צ/ית)"
      },
      "Air control NCO": {
        "en": "Air control NCO",
        "he": "מש\"ק/ית בקרה אווירית"
      },
      "Operator of Aeronautical Systems (Aerial Image)": {
        "en": "Operator of Aeronautical Systems (Aerial Image)",
        "he": "מפעיל/ת מערכות תמונ\"א (תמונה אווירית)"
      },
      "Meteorol in the forecasting unit": {
        "en": "Meteorol in the forecasting unit",
        "he": "מטאורולג ביחידת החיזוי"
      },
      "Tactical Kshav operator": {
        "en": "Tactical Kshav operator",
        "he": "מפעיל קש\"ב טקטי"
      },
      "Strategic shield": {
        "en": "Strategic shield",
        "he": "מגן אסטרטגי"
      },
      "Information Security NCO": {
        "en": "Information Security NCO",
        "he": "מש\"ק אבטחת מידע"
      },
      "Electronic fighter": {
        "en": "Electronic fighter",
        "he": "לוחם אלקטרוני"
      },
      "Communications and communication operator - navigation systems, communication and command and control": {
        "en": "Communications and communication operator - navigation systems, communication and command and control",
        "he": "מפעיל קשר ותקשורת - מערכות ניווט, קשר ושליטה ובקרה"
      },
      "Communications technician, command and control aircraft \"Thunder\"": {
        "en": "Communications technician, command and control aircraft \"Thunder\"",
        "he": "טכנאי תקשורת, שליטה ובקרה מטוסי \"רעם\""
      },
      "Communications technicians, command and control aircraft \"Eagle\"": {
        "en": "Communications technicians, command and control aircraft \"Eagle\"",
        "he": "טכנאי תקשורת, שליטה ובקרה מטוסי \"עיט\""
      },
      "Squadron Commander": {
        "en": "Squadron Commander",
        "he": "מפקד טייסת"
      },
      "Deputy Squadron Commander": {
        "en": "Deputy Squadron Commander",
        "he": "סגן מפקד טייסת"
      },
      "Runs a hover system": {
        "en": "Runs a hover system",
        "he": "מפעיל מערכת רחף"
      },
      "Flight supervisor": {
        "en": "Flight supervisor",
        "he": "פקח טיסה"
      },
      "A ground-based defense officer and training bases": {
        "en": "A ground-based defense officer and training bases",
        "he": "מ\"כ בהגנה קרקעית  ובבסיסי הדרכה"
      },
      "Programmer in the Ofek unit": {
        "en": "Programmer in the Ofek unit",
        "he": "תוכניתן ביחידת אופק"
      }
    },
    "unit": {}
  },
  "Sea": {
    "en": "Sea",
    "he": "ים",
    "professions": {
      "Cruises": {
        "en": "Cruises",
        "he": "שייט"
      },
      "mate": {
        "en": "mate",
        "he": "חובל"
      },
      "Certified Systems": {
        "en": "Certified Systems",
        "he": "מוסמך מערכות"
      },
      "Researcher of marine accidents": {
        "en": "Researcher of marine accidents",
        "he": "חוקר תאונות ימיות"
      },
      "GASI - Body of Sea Tours": {
        "en": "GASI - Body of Sea Tours",
        "he": "גס\"י - גוף סיורי ים"
      },
      "Commander of the Navy": {
        "en": "Commander of the Navy",
        "he": "מפקד חיל הים"
      },
      "Deputy Commander of the Navy": {
        "en": "Deputy Commander of the Navy",
        "he": "סגן מפקד חיל הים"
      },
      "Marine control controllers": {
        "en": "Marine control controllers",
        "he": "בקרי/ת שליטה ימית"
      },
      "Wireless Beach": {
        "en": "Wireless Beach",
        "he": "אלחוטאי/ת חוף"
      },
      "Simelotor is an artist": {
        "en": "Simelotor is an artist",
        "he": "מאמנ/ת סימלוטור"
      },
      "A marine device": {
        "en": "A marine device",
        "he": "מכשירנ/ית ימית"
      },
      "Marine Intelligence Researcher": {
        "en": "Marine Intelligence Researcher",
        "he": "חוקר/ת מודיעין ימי"
      },
      "Sailor / engine / tower": {
        "en": "Sailor / engine / tower",
        "he": "ימאי/ת/מנועני/ת גוררת"
      },
      "Fighter \"fin\"": {
        "en": "Fighter \"fin\"",
        "he": "לוחם/ת \"סנפיר\""
      },
      "Ground control coordinator": {
        "en": "Ground control coordinator",
        "he": "רכז/ת שליטה קרקעית"
      },
      "A naval warrior": {
        "en": "A naval warrior",
        "he": "לוחם ימי"
      },
      "YALATAM - A unit for underwater missions": {
        "en": "YALATAM - A unit for underwater missions",
        "he": "לוחם ילת\"ם - יחידה למשימות תת ימיות"
      },
      "Boat operator": {
        "en": "Boat operator",
        "he": "מפעיל סירות"
      },
      "Certified weapons systems": {
        "en": "Certified weapons systems",
        "he": "מוסמך מערכות נשק"
      },
      "Certified discovery and navigation": {
        "en": "Certified discovery and navigation",
        "he": "מוסמך גילוי וניווט"
      },
      "Certified Underwater Discovery (SNOWAR)": {
        "en": "Certified Underwater Discovery (SNOWAR)",
        "he": "מוסמך גילוי תת ימי (סנואר)"
      },
      "Certified sailing, propulsion and control": {
        "en": "Certified sailing, propulsion and control",
        "he": "מוסמך השטה, הנעה ובקרה"
      },
      "Running a position at sea": {
        "en": "Running a position at sea",
        "he": "מפעיל עמדה בים"
      },
      "Talented and basic seamanship": {
        "en": "Talented and basic seamanship",
        "he": "מוכשר ימאות בסיסית"
      },
      "Competent underwater sabotage": {
        "en": "Competent underwater sabotage",
        "he": "מוכשר חבלה תת ימית"
      },
      "Competent bomb disposal": {
        "en": "Competent bomb disposal",
        "he": "מוכשר סילוק פצצות"
      },
      "Talented technology for repairing ships": {
        "en": "Talented technology for repairing ships",
        "he": "מוכשר טכנולוגיה לתיקון ספינות"
      },
      "Underwater photographer": {
        "en": "Underwater photographer",
        "he": "צלם תת ימי"
      },
      "Commander of a Ship": {
        "en": "Commander of a Ship",
        "he": "מפקד ספינה"
      },
      "Deputy commander of a ship": {
        "en": "Deputy commander of a ship",
        "he": "סגן מפקד ספינה"
      },
      "A platoon commander on the ship": {
        "en": "A platoon commander on the ship",
        "he": "מפקד מחלקה בספינה"
      },
      "A deputy platoon commander on the ship": {
        "en": "A deputy platoon commander on the ship",
        "he": "סגן מפקד מחלקה בספינה"
      },
      "Commander Steele": {
        "en": "Commander Steele",
        "he": "מפקד סטיל"
      },
      "Commander of Deborah": {
        "en": "Commander of Deborah",
        "he": "מפקד דבורה"
      },
      "Officer shift machine": {
        "en": "Officer shift machine",
        "he": "קצין משמרת מכונה"
      },
      "Electronic Warfare Officer": {
        "en": "Electronic Warfare Officer",
        "he": "קצין לוחמה אלקטרונית"
      },
      "Deputy Chief Electronics Officer": {
        "en": "Deputy Chief Electronics Officer",
        "he": "סגן קצין מחלקת אלקטרוניקה"
      },
      "Commander of a company": {
        "en": "Commander of a company",
        "he": "מפקד פלגה"
      },
      "Deputy commander of a company": {
        "en": "Deputy commander of a company",
        "he": "סגן מפקד פלגה"
      },
      "Team Commander": {
        "en": "Team Commander",
        "he": "מפקד צוות"
      },
      "Boat mechanic": {
        "en": "Boat mechanic",
        "he": "מכונאי סירות"
      },
      "Training of ship repair technology": {
        "en": "Training of ship repair technology",
        "he": "הכשרת טכנולוגיה לתיקון ספינות"
      },
      "Underwater photography training": {
        "en": "Underwater photography training",
        "he": "הכשרת צילום תת ימי"
      }
    },
    "unit": {}
  },
  "Military / Religious Rabbinate": {
    "en": "Military / Religious Rabbinate",
    "he": "רבנות צבאית/דת",
    "professions": {
      "Military rabbi": {
        "en": "Military rabbi",
        "he": "רב צבאי"
      },
      "Kashrut supervisor": {
        "en": "Kashrut supervisor",
        "he": "משגיח כשרות"
      },
      "Chief Rabbinate supervisor": {
        "en": "Chief Rabbinate supervisor",
        "he": "מפקח ברבנות הראשית"
      },
      "A scribe": {
        "en": "A scribe",
        "he": "סופר סת\"ם"
      },
      "Member of the Military Rabbinate": {
        "en": "Member of the Military Rabbinate",
        "he": "איש להקת הרבנות הצבאית"
      },
      "Military cantor": {
        "en": "Military cantor",
        "he": "חזן צבאי"
      },
      "Burial identification branch man": {
        "en": "Burial identification branch man",
        "he": "איש ענף זיהוי קבורה"
      },
      "Officer / counter in the Military Burial Society": {
        "en": "Officer / counter in the Military Burial Society",
        "he": "קצין/נגד בחברה קדישא הצבאית"
      },
      "Chief Military Rabbi": {
        "en": "Chief Military Rabbi",
        "he": "הרב הצבאי הראשי"
      },
      "Deputy Chief Military Rabbi": {
        "en": "Deputy Chief Military Rabbi",
        "he": "סגן הרב הראשי הצבאי"
      },
      "A commanding military rabbi": {
        "en": "A commanding military rabbi",
        "he": "רב צבאי פיקודי"
      },
      "Military brigade commander": {
        "en": "Military brigade commander",
        "he": "רב צבאי חטיבתי"
      },
      "A divisional military rabbi": {
        "en": "A divisional military rabbi",
        "he": "רב צבאי אוגדתי"
      },
      "Rabbi in Kashrut Department": {
        "en": "Rabbi in Kashrut Department",
        "he": "רב במחלקת כשרות"
      },
      "Rabbi of the IDF Chief Rabbinate's General Staff": {
        "en": "Rabbi of the IDF Chief Rabbinate's General Staff",
        "he": "רב במדור הבקרה הצהלי של מטכ\"ל הרבנות הראשית"
      },
      "Unit Scanning Unit": {
        "en": "Unit Scanning Unit",
        "he": "קצין יחידת סריקה"
      },
      "Division of identification and burial": {
        "en": "Division of identification and burial",
        "he": "מ\"מ ענף זיהוי וקבורה"
      },
      "Officer of Identification and Burial Branch": {
        "en": "Officer of Identification and Burial Branch",
        "he": "קצין ענף זיהוי וקבורה"
      },
      "Against the Zivai and Burial industry": {
        "en": "Against the Zivai and Burial industry",
        "he": "נגד ענף זיוהי וקבורה"
      },
      "Assistant Chief Rabbi for Emergency Preparedness": {
        "en": "Assistant Chief Rabbi for Emergency Preparedness",
        "he": "עוזר הרב הראשי הצבאי לנושא המוכנות למצבי חירום"
      },
      "Talented \"Documentation Means of Identification\"": {
        "en": "Talented \"Documentation Means of Identification\"",
        "he": "מוכשרים \"תיעוד אמצעי זיהוי\""
      },
      "Qualified \"Investigations and Identification Unit\"": {
        "en": "Qualified \"Investigations and Identification Unit\"",
        "he": "מוכשר \"יחידת חקירות וזיהוי\""
      },
      "Multi-military training base": {
        "en": "Multi-military training base",
        "he": "רב צבאי בבסיס הדרכה"
      },
      "A religious officer": {
        "en": "A religious officer",
        "he": "קצין דת"
      },
      "Coordinator": {
        "en": "Coordinator",
        "he": "רכז מו\"ר"
      }
    },
    "unit": {}
  },
  "Colleges / Studies (or some other name)": {
    "en": "Colleges / Studies (or some other name)",
    "he": "מכללות/לימודים (או שם אחר אחר)",
    "professions": {
      "Trend Guide": {
        "en": "Trend Guide",
        "he": "מדריך מגמה"
      },
      "Trend Teacher": {
        "en": "Trend Teacher",
        "he": "מורה מגמה"
      },
      "Trend Commander": {
        "en": "Trend Commander",
        "he": "מפקד מגמה"
      },
      "College Commander": {
        "en": "College Commander",
        "he": "מפקד מכללה"
      },
      "Deputy College Commander": {
        "en": "Deputy College Commander",
        "he": "סגן מפקד מכללה"
      },
      "Head of Branch and Development at IDF Military Colleges": {
        "en": "Head of Branch and Development at IDF Military Colleges",
        "he": "ראש ענף ופיתוח במכללות הצבאיות של צה\"ל"
      },
      "Course Commander": {
        "en": "Course Commander",
        "he": "מפקד קורס"
      },
      "lecturer": {
        "en": "lecturer",
        "he": "מרצה"
      },
      "IDF Chief Instructor - Dr.": {
        "en": "IDF Chief Instructor - Dr.",
        "he": "מדריך ראשי בצה\"ל - מד\"ר"
      },
      "Commander of the National Security College": {
        "en": "Commander of the National Security College",
        "he": "מפקד המכללה לביטחון לאומי"
      },
      "Deputy Commander of the National Security College": {
        "en": "Deputy Commander of the National Security College",
        "he": "סגן מפקד המכללה לביטחון לאומי"
      },
      "The commander of the college understood the command and staff": {
        "en": "The commander of the college understood the command and staff",
        "he": "מפקד המכללה הבין זרועית לפיקוד ומטה"
      },
      "Deputy Commander of the Interdepartmental College of Command and Staff": {
        "en": "Deputy Commander of the Interdepartmental College of Command and Staff",
        "he": "סגן מפקד המכללה הבין זרועית לפיקוד ומטה"
      },
      "Commander of the Command and Staff College": {
        "en": "Commander of the Command and Staff College",
        "he": "מפקד המכללה לפיקוד ומטה"
      },
      "Deputy Commander of the Command and Staff College": {
        "en": "Deputy Commander of the Command and Staff College",
        "he": "סגן מפקד המכללה לפיקוד ומטה"
      },
      "Law teachers": {
        "en": "Law teachers",
        "he": "מורים למשפט"
      },
      "Commander of the Military Law School": {
        "en": "Commander of the Military Law School",
        "he": "מפקד בית ספר למשפט צבאי"
      },
      "Deputy commander of a military law school": {
        "en": "Deputy commander of a military law school",
        "he": "סגן  מפקד בית ספר למשפט צבאי"
      },
      "Criminal Law Officer": {
        "en": "Criminal Law Officer",
        "he": "קצין מגמת דין פלילי"
      },
      "International law and civil law officer": {
        "en": "International law and civil law officer",
        "he": "קצין מגמת הדין הבין-לאומי והדין האזרחי"
      },
      "Officer disciplinary disciplinary course": {
        "en": "Officer disciplinary disciplinary course",
        "he": "קצין מגמת דין משמעתי"
      },
      "NCO Law": {
        "en": "NCO Law",
        "he": "מש\"ק משפט"
      },
      "Law officer": {
        "en": "Law officer",
        "he": "קצין משפט"
      },
      "The school commander": {
        "en": "The school commander",
        "he": "מפקד בית הספר"
      },
      "The deputy commander of the school": {
        "en": "The deputy commander of the school",
        "he": "סגן מפקד בית הספר"
      },
      "Chief Training Officer": {
        "en": "Chief Training Officer",
        "he": "קצין הדרכה ראשי"
      },
      "Director of Training": {
        "en": "Director of Training",
        "he": "מנהל תחום הדרכה"
      },
      "Instructor / Training Course": {
        "en": "Instructor / Training Course",
        "he": "מדריך/ה קורס לוחמי איסוף"
      },
      "Instructor / Observation Course": {
        "en": "Instructor / Observation Course",
        "he": "מדריך/ה קורס תצפיתניות"
      },
      "Instructor in the course of the BA in the field of land collection": {
        "en": "Instructor in the course of the BA in the field of land collection",
        "he": "מדריך/ה קורס באק\"סיות - בקרית איסוף יבשתית"
      },
      "Commander of the Parachuting School": {
        "en": "Commander of the Parachuting School",
        "he": "מפקד בית ספר לצניחה"
      },
      "Deputy Drop School": {
        "en": "Deputy Drop School",
        "he": "סגן בית ספר לצניחה"
      },
      "Arabic teacher": {
        "en": "Arabic teacher",
        "he": "מורה ערבית"
      },
      "A Persian goal": {
        "en": "A Persian goal",
        "he": "מטרה פרסית"
      },
      "S. The school commander": {
        "en": "S. The school commander",
        "he": "ס. מפקד בית הספר"
      },
      "Director of field": {
        "en": "Director of field",
        "he": "מנהלת תחום"
      }
    },
    "unit": {}
  },
  "Planning": {
    "en": "Planning",
    "he": "תכנון",
    "professions": {
      "Commander of the Planning Division": {
        "en": "Commander of the Planning Division",
        "he": "מפקד אגף התכנון"
      },
      "Deputy Commander of the Planning Division": {
        "en": "Deputy Commander of the Planning Division",
        "he": "סגן מפקד אגף התכנון"
      }
    },
    "unit": {}
  },
  "Training / Basic Training - in the PM's": {
    "en": "Training / Basic Training - in the PM's",
    "he": "הדרכה/בסיסי הדרכה – בהד\"ים",
    "professions": {},
    "unit": {}
  },
  "Heavy Equipment Operators": {
    "en": "Heavy Equipment Operators",
    "he": "צמ\"ה – מפעילי ציוד מכני הנדסי כבד",
    "professions": {
      "Chief Training Officer": {
        "en": "Chief Training Officer",
        "he": "קצין הדרכה ראשי"
      },
      "Training Officer": {
        "en": "Training Officer",
        "he": "קצין הדרכה"
      },
      "Operator Talon": {
        "en": "Operator Talon",
        "he": "מפעיל טאלון"
      },
      "Agamian operator": {
        "en": "Agamian operator",
        "he": "מפעיל אגמית"
      },
      "Operator D9T bulldozer": {
        "en": "Operator D9T bulldozer",
        "he": "מפעיל דחפור D9T"
      },
      "D9N bulldozer operator": {
        "en": "D9N bulldozer operator",
        "he": "מפעיל דחפור D9N"
      },
      "Operator Keter Paz - Tractor": {
        "en": "Operator Keter Paz - Tractor",
        "he": "מפעיל כתר פז - טרקטור"
      },
      "Running a minicat robot": {
        "en": "Running a minicat robot",
        "he": "מפעיל רובוט minicat"
      },
      "Running a sands cat": {
        "en": "Running a sands cat",
        "he": "מפעיל חתול חולות"
      },
      "Operator \"Sahar\" - Robotic Engineering Explorer": {
        "en": "Operator \"Sahar\" - Robotic Engineering Explorer",
        "he": "מפעיל \"סהר\" - סייר הנדסי רובוטי"
      },
      "Running a bugger": {
        "en": "Running a bugger",
        "he": "מפעיל באגר"
      },
      "Operators of bulldozer": {
        "en": "Operators of bulldozer",
        "he": "מפעילי דחפור"
      },
      "Activated for protected construction": {
        "en": "Activated for protected construction",
        "he": "מפעילי דחפור ממוגן"
      },
      "Operators of tractors": {
        "en": "Operators of tractors",
        "he": "מפעילי טרקטורים"
      },
      "Operator operators": {
        "en": "Operator operators",
        "he": "מפעילי שופלים"
      },
      "Operators of excavators": {
        "en": "Operators of excavators",
        "he": "מפעילי מחפרים"
      },
      "Mini - operated backhoe loader": {
        "en": "Mini - operated backhoe loader",
        "he": "מפעיל מיני מחפרון ממוגן"
      },
      "Cranes operators": {
        "en": "Cranes operators",
        "he": "מפעילי מנופים"
      },
      "Compact loader operators": {
        "en": "Compact loader operators",
        "he": "מפעילי מעמיסים קומפקטיים"
      },
      "Operators of pliers": {
        "en": "Operators of pliers",
        "he": "מפעילי מפלסות"
      },
      "Mobile crane operators": {
        "en": "Mobile crane operators",
        "he": "מפעילי עגורנים ניידים"
      },
      "Operators of bridging tanks": {
        "en": "Operators of bridging tanks",
        "he": "מפעילי טנקי גישור"
      },
      "Operators of hole drillers": {
        "en": "Operators of hole drillers",
        "he": "מפעילי מקדחי בורות"
      },
      "Operator Engineering Tank": {
        "en": "Operator Engineering Tank",
        "he": "מפעיל טנק הנדסה"
      },
      "Basic Plant Operator - Stage 6 Operator (Machash, Excavator and more)": {
        "en": "Basic Plant Operator - Stage 6 Operator (Machash, Excavator and more)",
        "he": "מפעיל צמ\"ה בסיסי - מפעיל שלב 6 (מחבש, מחפר ועוד)"
      },
      "Basic Operations Operator - Stage 7 Operator - Caterpillar (D9, Caterpillar and more)": {
        "en": "Basic Operations Operator - Stage 7 Operator - Caterpillar (D9, Caterpillar and more)",
        "he": "מפעיל מצ\"ה בסיסי - מפעיל שלב 7 - זחליים (D9, קטרפילר ועוד)"
      },
      "Basic Operation Operator - Stage 8 Operator - Bicycle tools (bulldozer, backhoe, leveler, Bobcat and more)": {
        "en": "Basic Operation Operator - Stage 8 Operator - Bicycle tools (bulldozer, backhoe, leveler, Bobcat and more)",
        "he": "מפעיל מצ\"ה בסיסי - מפעיל שלב 8 - כלים אופניים (שופל, מחפרון, מפלסת, בובקאט ועוד)"
      },
      "Runs Terkur Roadmineor": {
        "en": "Runs Terkur Roadmineor",
        "he": "מפעיל טרקור רואדמיינור"
      },
      "Operator digging trenches": {
        "en": "Operator digging trenches",
        "he": "מפעיל חופר תעלות"
      },
      "Connie digging operator": {
        "en": "Connie digging operator",
        "he": "מפעיל חופר קוני"
      },
      "Operator for Lavi - engineering fighter in engineering mode": {
        "en": "Operator for Lavi - engineering fighter in engineering mode",
        "he": "מפעיל לביא\"ה - לוחם הנדסי ביעה אופני הנדסי"
      },
      "Runs D9T": {
        "en": "Runs D9T",
        "he": "מפעיל D9T"
      },
      "Running \"Black Thunder\"": {
        "en": "Running \"Black Thunder\"",
        "he": "מפעיל \"רעם שחור\""
      },
      "Operates the E-349 BAGR": {
        "en": "Operates the E-349 BAGR",
        "he": "מפעיל באגר E-349"
      },
      "Runs a crawler": {
        "en": "Runs a crawler",
        "he": "מפעיל יעה זחלי"
      },
      "DRILLER PROTECTIVE OPERATOR": {
        "en": "DRILLER PROTECTIVE OPERATOR",
        "he": "מפעיל דרילר ממוגן"
      },
      "Operator Tatra Drailer": {
        "en": "Operator Tatra Drailer",
        "he": "מפעיל טאטרה דרילר"
      },
      "The operator penetrates the conical": {
        "en": "The operator penetrates the conical",
        "he": "מפעיל חודר קוני"
      },
      "Operator of Maccabees": {
        "en": "Operator of Maccabees",
        "he": "מפעיל מכבים"
      },
      "Operator Terkenor Roadminer - clearing mines": {
        "en": "Operator Terkenor Roadminer - clearing mines",
        "he": "מפעיל טרקנור רואדמיינר - פינוי מוקשים"
      },
      "Operator \"Ami\" - backhoe opening hinges": {
        "en": "Operator \"Ami\" - backhoe opening hinges",
        "he": "מפעיל \"עמי\" - מחפרון פתיחת צירים"
      },
      "Runs Front Runner": {
        "en": "Runs Front Runner",
        "he": "מפעיל פרונט רנר"
      },
      "Operator \"Sandcat\" (Bobcat)": {
        "en": "Operator \"Sandcat\" (Bobcat)",
        "he": "מפעיל חתול חולות (בובקאט)"
      },
      "SAHAR Operator (Robotic Engineering Explorer)": {
        "en": "SAHAR Operator (Robotic Engineering Explorer)",
        "he": "מפעיל סה\"ר (סייר הנדסי רובוטי)"
      },
      "Runs itchy": {
        "en": "Runs itchy",
        "he": "מפעיל מגרדות"
      },
      "Running dirt trucks": {
        "en": "Running dirt trucks",
        "he": "מפעיל משאיות עפר"
      },
      "Operation of the Meishar tank": {
        "en": "Operation of the Meishar tank",
        "he": "מפעיל טנק מישר"
      },
      "Running a \"destination bridge\"": {
        "en": "Running a \"destination bridge\"",
        "he": "מפעיל \"גשר יעד\""
      },
      "Running Bailey Bridge": {
        "en": "Running Bailey Bridge",
        "he": "מפעיל גשר ביילי"
      },
      "Running bridge cages": {
        "en": "Running bridge cages",
        "he": "מפעיל גשר כלובים"
      },
      "Operates a light infantry bridge": {
        "en": "Operates a light infantry bridge",
        "he": "מפעיל גשר חי\"ר קל"
      },
      "Running Doves": {
        "en": "Running Doves",
        "he": "מפעיל דובורות"
      },
      "Crocodile operator - carrying naval tanks": {
        "en": "Crocodile operator - carrying naval tanks",
        "he": "מפעיל תמסח - נושא טנקים ימי"
      },
      "Operates the roller bridge": {
        "en": "Operates the roller bridge",
        "he": "מפעיל גשר הגלילים"
      },
      "Operator puma - a groundbreaking engineering obstacles": {
        "en": "Operator puma - a groundbreaking engineering obstacles",
        "he": "מפעיל פומ\"ה - פורץ מכשולים הנדסי"
      },
      "A bulldozer operator": {
        "en": "A bulldozer operator",
        "he": "מפעיל דחפור"
      },
      "Operator Mediation Tank": {
        "en": "Operator Mediation Tank",
        "he": "מפעיל טנק גישור"
      },
      "Operation of the Hadassah tank": {
        "en": "Operation of the Hadassah tank",
        "he": "מפעיל טנק ההדסה"
      },
      "Runs D9": {
        "en": "Runs D9",
        "he": "מפעיל D9"
      },
      "Operated from an armored bulldozer": {
        "en": "Operated from an armored bulldozer",
        "he": "מפעיל מחפ\"ר ממוגן"
      },
      "Plumber operator": {
        "en": "Plumber operator",
        "he": "מפעיל מפלסות"
      },
      "Reinforced plastered muffler": {
        "en": "Reinforced plastered muffler",
        "he": "מפעלי מפלסת ממוגנת"
      },
      "Operator \"Loaders\"": {
        "en": "Operator \"Loaders\"",
        "he": "מפעיל \"מעמיסים\""
      },
      "Operates armored vehicles": {
        "en": "Operates armored vehicles",
        "he": "מפעיל נגמ\"שי הנדסה"
      },
      "Operator / Driver": {
        "en": "Operator / Driver",
        "he": "מפעיל/נהג"
      },
      "Commander of the Central Region - 405 households": {
        "en": "Commander of the Central Region - 405 households",
        "he": "מפקד צמ\"ה - משקי צמ\"ה"
      },
      "Step 10 - Junior Director": {
        "en": "Step 10 - Junior Director",
        "he": "שלב 10 - מנהל זוטר"
      },
      "Step 12 Senior Work Manager": {
        "en": "Step 12 Senior Work Manager",
        "he": "שלב 12 מנהל עבודה בכיר"
      },
      "Step 13 - Commanding Officer": {
        "en": "Step 13 - Commanding Officer",
        "he": "שלב 13 - מנהל עבודה פיקודי"
      },
      "Operators": {
        "en": "Operators",
        "he": "מפעילי צמ\"ה"
      }
    },
    "unit": {}
  },
  "Cyber - Communications and Defense Division at the Civil Service Center": {
    "en": "Cyber - Communications and Defense Division at the Civil Service Center",
    "he": "סייבר – אגף תקשוב וההגנה בסב\"ר",
    "professions": {
      "A cyber man": {
        "en": "A cyber man",
        "he": "איש סייבר"
      },
      "engineer": {
        "en": "engineer",
        "he": "מהנדס"
      },
      "programmer": {
        "en": "programmer",
        "he": "מתכנת"
      },
      "Practical Engineer": {
        "en": "Practical Engineer",
        "he": "הנדסאי"
      },
      "Systems Analyst": {
        "en": "Systems Analyst",
        "he": "מנתח מערכות"
      },
      "Electronic fighter": {
        "en": "Electronic fighter",
        "he": "לוחם אלקטרוני"
      }
    },
    "unit": {}
  },
  "Computers": {
    "en": "Computers",
    "he": "מחשבים",
    "professions": {
      "Computer systems technicians": {
        "en": "Computer systems technicians",
        "he": "טכנאי מערכות מחשב"
      },
      "Computer Network Manager (MAM)": {
        "en": "Computer Network Manager (MAM)",
        "he": "מנהל רשת מחשוב(מר\"מ)"
      },
      "Computer Systems Technician (TAM)": {
        "en": "Computer Systems Technician (TAM)",
        "he": "טכנאי מערכות מחשוב(טמ\"מ)"
      },
      "IT Technician": {
        "en": "IT Technician",
        "he": "טכנאי IT"
      },
      "Computer guy": {
        "en": "Computer guy",
        "he": "איש מחשבים"
      },
      "Commander of Computerization": {
        "en": "Commander of Computerization",
        "he": "מפקד תחום מחשוב"
      },
      "From NCO / NCO information systems": {
        "en": "From NCO / NCO information systems",
        "he": "מקצין/מש\"ק מערכות מידע"
      },
      "Instruction": {
        "en": "Instruction",
        "he": "הדרכה"
      },
      "Software man / programmer": {
        "en": "Software man / programmer",
        "he": "איש תוכנה/ תוכניתן"
      },
      "Cyber shield": {
        "en": "Cyber shield",
        "he": "מגן  סייבר"
      },
      "Systems Analyst": {
        "en": "Systems Analyst",
        "he": "מנתח מערכות"
      },
      "A code man": {
        "en": "A code man",
        "he": "איש צופן"
      },
      "Maintains systems": {
        "en": "Maintains systems",
        "he": "מתחזק מערכות"
      },
      "Software Tester": {
        "en": "Software Tester",
        "he": "בודק תוכנה"
      },
      "Writing a tutorial": {
        "en": "Writing a tutorial",
        "he": "כותב לומדה"
      },
      "Programmer - Development of software systems": {
        "en": "Programmer - Development of software systems",
        "he": "תוכניתן - פיתוח מערכות תוכנה"
      },
      "Competent and protective track in cyber": {
        "en": "Competent and protective track in cyber",
        "he": "מוכשר מסלול מגן בסייבר"
      },
      "Computer Systems Infrastructure Management (NAMAM)": {
        "en": "Computer Systems Infrastructure Management (NAMAM)",
        "he": "ניהול תשתיות מערכות מחשב (נתמ\"מ)"
      },
      "Implementing ERP": {
        "en": "Implementing ERP",
        "he": "מיישם ERP"
      },
      "Network management and computing": {
        "en": "Network management and computing",
        "he": "ניהול  רשת מחשוב"
      },
      "Computer systems assimilate": {
        "en": "Computer systems assimilate",
        "he": "מטמיעות מערכות מחשב"
      },
      "Competent with MATAM - Information Systems, Processes and Computing": {
        "en": "Competent with MATAM - Information Systems, Processes and Computing",
        "he": "מוכשר ממת\"ם - מערכות מידע, תהליכים ומחשוב"
      }
    },
    "unit": {}
  }
}